corr_of_corr_exploratory_analysis.R
…
library(GGally)

## 
## Attaching package: 'GGally'

## The following object is masked from 'package:dplyr':
## 
##     nasa

library(ggcorrplot)
#load("20180507_corr_of_corr_all.RData")  # combined_data
load("20180507_corr_of_corr_filter_FDR.RData") ## combined_filtered_data
combined_filtered_data

## # A tibble: 12,894,811 x 10
##    cluster    geneA geneB   corr      FDR random_avrg_corr random_avrg_FDR
##    <chr>      <chr> <chr>  <dbl>    <dbl>            <dbl>           <dbl>
##  1 budding    A180T YAL0 -0.127 5.21e-17           0.0570          0.344 
##  2 cell cort A180T YAL0  0.057 3.30e- 4          -0.128           0.103 
##  3 cell cycle A180T YAL0 -0.093 1.23e- 9          -0.0102          0.294 
##  4 cell cycl A180T YAL0 -0.101 6.94e-11          -0.0425          0.245 
##  5 cell cycl A180T YAL0 -0.207 3.91e-41          -0.0678          0.162 
##  6 cellular  A180T YAL0 -0.045 3.78e- 3          -0.0497          0.241 
##  7 cellular  A180T YAL0 -0.122 3.38e-15          -0.0862          0.245 
##  8 chromatin A180T YAL0 -0.181 3.71e-30          -0.0848          0.369 
##  9 chromatin A180T YAL0  0.066 1.93e- 5           0.0223          0.248 
## 10 chromatin A180T YAL0  0.138 5.32e-19           0.0867          0.0577
## # ... with 12,894,801 more rows, and 3 more variables: corr_ratio <dbl>,
## #   ORF <chr>, gene_name <chr>
…
