hclust_EMAP_library_genes_tidy.R
…
GO_slims <- GO_slims %>% select("ORF" = X1, "Gene" = X2, "GO_Slim_term" = X5)
#### check for overly general slims
(GO_slims_count <- GO_slims %>% group_by(GO_Slim_term) %>%
  summarize("count" = n()) %>% arrange(desc(count)))

## # A tibble: 169 x 2
##    GO_Slim_term         count
##    <chr>                <int>
##  1 cytoplasm             4312
##  2 molecular_function    2619
##  3 nucleus               2121
##  4 biological_process    1801
##  5 membrane              1695
##  6 cellular_component    1293
##  7 mitochondrion         1178
##  8 endomembrane system    978
##  9 hydrolase activity     831
## 10 transferase activity   788
## # ... with 159 more rows

### remove some terms
##############################################
GO_slim_terms_to_remove <- as.character(expression(
  signaling, biological_process, response, "response to chemical", "protein complex biogenesis", other, "not_yet_annotated",
  "ion binding", "cellular_component", "molecular_function", membrane, cytoplasm, nucleus, "structural molecule activity", "ATPase activity"
))
GO_slims <- GO_slims %>% filter( ! (GO_Slim_term %in% GO_slim_terms_to_remove))
(GO_slims_count <- GO_slims %>% group_by(GO_Slim_term) %>%
  summarize("count" = n()) %>% arrange(desc(count)))

## # A tibble: 155 x 2
##    GO_Slim_term                                  count
##    <chr>                                         <int>
##  1 mitochondrion                                  1178
##  2 endomembrane system                             978
##  3 hydrolase activity                              831
##  4 transferase activity                            788
##  5 RNA binding                                     756
##  6 endoplasmic reticulum                           616
##  7 transcription from RNA polymerase II promoter   481
##  8 vacuole                                         469
##  9 mitochondrion organization                      424
## 10 plasma membrane                                 395
## # ... with 145 more rows
…
      select(cluster, ORF, gene_name)
    #GO_cat_clusters <- bind_rows(GO_cat_clusters, cluster)
    clust_emap_spread <- clust.emap_mut %>% 
      select(Gene_uniq, library.ORF, score) %>% 
      spread(Gene_uniq, score)
    temp_matrix <- as.matrix(clust_emap_spread[, -1])
    rownames(temp_matrix) <- clust_emap_spread$library.ORF
    ### add each of these clusters onto the lib.ubermap.matrix so I can subscluster them with hclust later
    lib.ubermap.matrix[[str_c(cat, "GO", sep = "_")]][["mut"]] <- temp_matrix
  }
}
(GO_cat_clusters <- GO_cat_clusters %>% 
  arrange(ORF, cluster))

## # A tibble: 10,251 x 3
##    cluster               ORF     gene_name
##    <chr>                 <chr>   <chr>    
##  1 cytoplasmic vesicle   YAL002W VPS8     
##  2 endomembrane system   YAL002W VPS8     
##  3 endosomal transport   YAL002W VPS8     
##  4 enzyme binding        YAL002W VPS8     
##  5 Golgi and ER          YAL002W VPS8     
##  6 protein targeting     YAL002W VPS8     
##  7 cytoplasmic vesicle   YAL007C ERP2     
##  8 endomembrane system   YAL007C ERP2     
##  9 endoplasmic reticulum YAL007C ERP2     
## 10 ER                    YAL007C ERP2     
## # ... with 10,241 more rows
…
## # A tibble: 6 x 3
##   cluster     ORF     gene_name
##   <chr>       <chr>   <chr>    
## 1 sig_Gsp1_GI YOR191W ULS1     
## 2 sig_Gsp1_GI YGR122W YGR122W  
## 3 sig_Gsp1_GI YCR086W CSM1     
## 4 sig_Gsp1_GI YOR061W CKA2     
## 5 sig_Gsp1_GI YIL153W RRD1     
## 6 sig_Gsp1_GI YEL053C MAK10

(GO_cat_clusters <- GO_cat_clusters %>% 
  arrange(ORF, cluster))

## # A tibble: 10,555 x 3
##    cluster               ORF     gene_name
##    <chr>                 <chr>   <chr>    
##  1 cytoplasmic vesicle   YAL002W VPS8     
##  2 endomembrane system   YAL002W VPS8     
##  3 endosomal transport   YAL002W VPS8     
##  4 enzyme binding        YAL002W VPS8     
##  5 Golgi and ER          YAL002W VPS8     
##  6 protein targeting     YAL002W VPS8     
##  7 cytoplasmic vesicle   YAL007C ERP2     
##  8 endomembrane system   YAL007C ERP2     
##  9 endoplasmic reticulum YAL007C ERP2     
## 10 ER                    YAL007C ERP2     
## # ... with 10,545 more rows
…
## # A tibble: 6 x 3
##   cluster       ORF     gene_name
##   <chr>         <chr>   <chr>    
## 1 whole_library YPR152C URN1     
## 2 whole_library YPR164W MMS1     
## 3 whole_library YPR167C MET16    
## 4 whole_library YPR173C VPS4     
## 5 whole_library YPR174C YPR174C  
## 6 whole_library YPR189W SKI3

(GO_cat_clusters <- GO_cat_clusters %>% 
    arrange(ORF, cluster))

## # A tibble: 11,880 x 3
##    cluster               ORF     gene_name
##    <chr>                 <chr>   <chr>    
##  1 cytoplasmic vesicle   YAL002W VPS8     
##  2 endomembrane system   YAL002W VPS8     
##  3 endosomal transport   YAL002W VPS8     
##  4 enzyme binding        YAL002W VPS8     
##  5 Golgi and ER          YAL002W VPS8     
##  6 protein targeting     YAL002W VPS8     
##  7 whole_library         YAL002W VPS8     
##  8 cytoplasmic vesicle   YAL007C ERP2     
##  9 endomembrane system   YAL007C ERP2     
## 10 endoplasmic reticulum YAL007C ERP2     
## # ... with 11,870 more rows
…
dev.off()

## quartz_off_screen 
##                 2

(GO_cat_clusters <- GO_cat_clusters %>% 
    arrange(ORF, cluster))

## # A tibble: 46,790 x 3
##    cluster                         ORF     gene_name
##    <chr>                           <chr>   <chr>    
##  1 cytoplasmic vesicle             YAL002W VPS8     
##  2 cytoplasmic vesicle_GO_15_1_all YAL002W VPS8     
##  3 cytoplasmic vesicle_GO_15_2_mut YAL002W VPS8     
##  4 endomembrane system             YAL002W VPS8     
##  5 endomembrane system_GO_15_6_all YAL002W VPS8     
##  6 endomembrane system_GO_15_8_mut YAL002W VPS8     
##  7 endomembrane system_GO_30_1_all YAL002W VPS8     
##  8 endomembrane system_GO_30_5_mut YAL002W VPS8     
##  9 endosomal transport             YAL002W VPS8     
## 10 endosomal transport_GO_15_1_mut YAL002W VPS8     
## # ... with 46,780 more rows

GO_cat_clusters %>% pull(cluster) %>% unique() %>% length()

## [1] 1250

(cluster_count <- GO_cat_clusters %>% 
    group_by(cluster) %>%
    summarize("count" = n()) %>% 
    arrange(desc(count)))

## # A tibble: 1,250 x 2
##    cluster                           count
##    <chr>                             <int>
##  1 whole_library                      1325
##  2 transcription and mRNA processing   330
##  3 Golgi and ER                        327
##  4 endomembrane system                 308
##  5 sig_Gsp1_GI                         304
##  6 cell cycle                          254
##  7 chromatin                           254
##  8 transferase activity                239
##  9 metabolic                           235
## 10 budding                             227
## # ... with 1,240 more rows
…
##### number of clusters per library gene
(n_clusters_per_protein <- GO_cat_clusters %>% 
  group_by(ORF, gene_name) %>%
  summarize("count" = n()) %>%
  arrange(desc(count)))

## # A tibble: 1,325 x 3
## # Groups:   ORF [1,325]
##    ORF     gene_name count
##    <chr>   <chr>     <int>
##  1 YJR066W TOR1        116
##  2 YNL298W CLA4        114
##  3 YER177W BMH1        110
##  4 YGL058W RAD6        107
##  5 YDL074C BRE1         99
##  6 YGL244W RTF1         98
##  7 YER164W CHD1         94
##  8 YHR030C SLT2         94
##  9 YNL330C RPD3         94
## 10 YJL168C SET2         93
## # ... with 1,315 more rows
…
## # A tibble: 0 x 2
## # ... with 2 variables: library.ORF <chr>, library.gene_name <chr>

## check how many unsorted when I remove the whole_library clusters!
GO_cat_clusters_whole_lib_removed <- GO_cat_clusters %>% 
  filter(! grepl("whole_library", cluster))
(n_clusters_per_protein <- GO_cat_clusters_whole_lib_removed %>% 
    group_by(ORF) %>%
    summarize("count" = n()) %>%
    arrange(desc(count)))

## # A tibble: 1,281 x 2
##    ORF     count
##    <chr>   <int>
##  1 YJR066W   111
##  2 YNL298W   110
##  3 YER177W   105
##  4 YGL058W   102
##  5 YDL074C    95
##  6 YGL244W    94
##  7 YNL330C    90
##  8 YER164W    89
##  9 YHR030C    89
## 10 YJL168C    89
## # ... with 1,271 more rows

(unsorted.library.ORFs <- ubermap %>%
  filter(! library.ORF %in% n_clusters_per_protein$ORF) %>% 
  select(library.ORF, library.gene_name) %>% 
  unique())

## # A tibble: 44 x 2
##    library.ORF library.gene_name
##    <chr>       <chr>            
##  1 YBL036C     YBL036C          
##  2 YBL066C     SEF1             
##  3 YBL081W     YBL081W          
##  4 YBL086C     YBL086C          
##  5 YBR076W     ECM8             
##  6 YBR194W     AIM4             
##  7 YBR255W     MTC4             
##  8 YBR270C     BIT2             
##  9 YCL001W-A   YCL001W-A        
## 10 YCL036W     GFD2             
## # ... with 34 more rows
…
(GO_cat_clusters <- GO_cat_clusters %>% 
    arrange(ORF, cluster))

## # A tibble: 46,811 x 3
##    cluster                         ORF     gene_name
##    <chr>                           <chr>   <chr>    
##  1 cytoplasmic vesicle             YAL002W VPS8     
##  2 cytoplasmic vesicle_GO_15_1_all YAL002W VPS8     
##  3 cytoplasmic vesicle_GO_15_2_mut YAL002W VPS8     
##  4 endomembrane system             YAL002W VPS8     
##  5 endomembrane system_GO_15_6_all YAL002W VPS8     
##  6 endomembrane system_GO_15_8_mut YAL002W VPS8     
##  7 endomembrane system_GO_30_1_all YAL002W VPS8     
##  8 endomembrane system_GO_30_5_mut YAL002W VPS8     
##  9 endosomal transport             YAL002W VPS8     
## 10 endosomal transport_GO_15_1_mut YAL002W VPS8     
## # ... with 46,801 more rows

(n_clusters_per_protein <- GO_cat_clusters %>% 
    group_by(ORF) %>%
    summarize("count" = n()) %>%
    arrange(desc(count)))

## # A tibble: 1,325 x 2
##    ORF     count
##    <chr>   <int>
##  1 YJR066W   116
##  2 YNL298W   114
##  3 YER177W   110
##  4 YGL058W   107
##  5 YDL074C    99
##  6 YGL244W    98
##  7 YER164W    94
##  8 YHR030C    94
##  9 YNL330C    94
## 10 YJL168C    93
## # ... with 1,315 more rows
…
