random_cluster_resampling_control.R
…
## Parsed with column specification:
## cols(
##   ORF = col_character(),
##   cluster = col_character(),
##   gene_name = col_character()
## )

(genes.per.cluster <- clusters.data %>%
  group_by(cluster) %>%
  summarise("count" = n()) )

## # A tibble: 35 x 2
##    cluster         count
##    <chr>           <int>
##  1 budding_GO_1       55
##  2 budding_GO_2       47
##  3 budding_GO_3       41
##  4 budding_GO_4       31
##  5 cell cycle_GO_1    62
##  6 cell cycle_GO_2    58
##  7 cell cycle_GO_3    40
##  8 cell cycle_GO_4    32
##  9 chromatin_GO_1     66
## 10 chromatin_GO_2     60
## # ... with 25 more rows

(clusters.per.gene <- clusters.data %>%
  group_by(gene_name) %>%
  summarise("count" = n()) )

## # A tibble: 862 x 2
##    gene_name count
##    <chr>     <int>
##  1 ACB1          1
##  2 ACE2          2
##  3 ACK1          1
##  4 ADA2          2
##  5 AEP2          2
##  6 AGE2          1
##  7 AGP2          2
##  8 AHC2          1
##  9 AIM21         1
## 10 AIM22         1
## # ... with 852 more rows
…
